<?xml version="1.0" encoding="UTF-8"?>
<svg width="775px" height="169px" viewBox="0 0 775 169" version="1.1" xmlns="http://www.w3.org/2000/svg" xmlns:xlink="http://www.w3.org/1999/xlink">
    <title>Reflect Logo</title>
    <g id="Reflect-Logo" stroke="none" stroke-width="1" fill="none" fill-rule="evenodd">
        <g id="reflect.logo.black" transform="translate(0.000000, -0.000000)" fill="#000000" fill-rule="nonzero">
            <path d="M-5.68434189e-14,166.746666 L-5.68434189e-14,6.75996755 L72.1075915,6.75996755 C79.6188365,6.75996755 86.5291098,8.3373012 92.8385241,11.4919685 C99.2981249,14.4964511 104.856494,18.6276006 109.513405,23.8853043 C114.169978,28.992936 117.775357,34.7764552 120.329543,41.2359744 C123.033578,47.6956064 124.385595,54.2302744 124.385595,60.8399784 C124.385595,70.754647 121.982385,79.9182795 117.174836,88.3306505 C112.518263,96.5929495 106.208511,102.902284 98.2465934,107.258654 L133.399044,166.746666 L92.6131878,166.746666 L61.9674614,115.145323 L36.9551406,115.145323 L36.9551406,166.746666 L-5.68434189e-14,166.746666 Z M36.9551406,82.9226495 L70.7555742,82.9226495 C75.112112,82.9226495 78.8676782,80.894649 82.0223853,76.8386482 C85.1770925,72.6324627 86.754446,67.2996103 86.754446,60.8399784 C86.754446,54.3804591 84.9517562,49.1977914 81.3463767,45.2919753 C77.7409971,41.2359744 73.8351317,39.207974 69.628893,39.207974 L36.9551406,39.207974 L36.9551406,82.9226495 Z M200.62698,169 C187.256655,169 175.839995,166.220513 166.375874,160.662665 C156.911753,155.104817 149.625506,147.743176 144.51826,138.579994 C139.560863,129.416812 137.082165,119.502143 137.082165,108.835988 C137.082165,97.4191344 139.560863,86.9786503 144.51826,77.5146484 C149.475657,68.0506465 156.686416,60.4644603 166.150538,54.7559772 C175.614659,49.0476067 187.106806,46.1933088 200.62698,46.1933088 C213.996178,46.1933088 225.413964,49.0476067 234.878086,54.7559772 C244.342207,60.4644603 251.477479,67.9756105 256.285027,77.289315 C261.242424,86.6031322 263.721122,96.5929495 263.721122,107.258654 C263.721122,111.615475 263.420299,115.446143 262.819778,118.750657 L175.389323,118.750657 C175.989844,126.712812 178.843727,132.796813 183.952099,137.00266 C189.209193,141.058661 195.143423,143.086661 201.753661,143.086661 C207.010755,143.086661 212.04364,141.810148 216.851188,139.255994 C221.65761,136.70184 224.963292,133.24748 226.765982,128.890659 L257.411708,137.453327 C252.754008,146.767482 245.468888,154.35333 235.554095,160.211998 C225.789149,166.070666 214.147153,169 200.62698,169 Z M174.487978,96.6679855 L225.864637,96.6679855 C225.113141,89.156948 222.333618,83.2231315 217.527197,78.8666486 C212.869497,74.3599811 207.086243,72.1066473 200.176307,72.1066473 C193.265245,72.1066473 187.406504,74.3599811 182.600082,78.8666486 C177.942382,83.3733162 175.238348,89.3071327 174.487978,96.6679855 Z M390.711605,168.549333 C380.646962,168.549333 372.684707,165.920819 366.825965,160.662665 C360.967223,155.404511 358.037852,148.945329 358.037852,141.283994 L358.037852,54.7559772 C358.037852,47.3951243 356.986659,41.5364565 354.883145,37.1799736 C352.780758,32.6733061 348.274034,30.4199723 341.362972,30.4199723 C334.75386,30.4199723 330.09616,32.5231214 327.392126,36.7293069 C324.839066,40.9356051 323.487049,46.3436061 323.336074,52.9533101 L323.336074,58.1359778 L341.137635,58.1359778 L341.137635,85.4013166 L323.336074,85.4013166 L323.336074,166.746666 L287.282278,166.746666 L287.282278,85.4013166 L272.184751,85.4013166 L272.184751,58.1359778 L287.282278,58.1359778 L287.282278,45.0666419 C287.282278,30.0444542 292.089826,18.7777853 301.703796,11.2666351 C311.318893,3.75555255 324.08757,0 340.010954,0 C358.789348,0 372.45937,4.35644907 381.022147,13.0693021 C389.735899,21.7822679 394.091648,33.3493062 394.091648,47.7706424 L394.091648,123.257324 C394.091648,127.163478 394.843144,130.392506 396.34501,132.946659 C397.997851,135.34984 400.47655,136.551994 403.781105,136.551994 C406.335292,136.551994 409.039326,136.02584 411.89321,134.97466 C414.898068,133.92348 416.776245,133.24748 417.526615,132.946659 L422.03334,162.014665 C421.28297,162.465332 419.254944,163.216819 415.949262,164.267999 C412.644706,165.319179 408.738502,166.295999 404.231778,167.197333 C399.725053,168.098666 395.218329,168.549333 390.711605,168.549333 Z M490.438657,169 C477.069459,169 465.651672,166.220513 456.187551,160.662665 C446.72343,155.104817 439.438309,147.743176 434.329937,138.579994 C429.37254,129.416812 426.893842,119.502143 426.893842,108.835988 C426.893842,97.4191344 429.37254,86.9786503 434.329937,77.5146484 C439.287334,68.0506465 446.498093,60.4644603 455.962215,54.7559772 C465.426336,49.0476067 476.918484,46.1933088 490.438657,46.1933088 C503.808982,46.1933088 515.225642,49.0476067 524.689763,54.7559772 C534.153884,60.4644603 541.290282,67.9756105 546.096704,77.289315 C551.054101,86.6031322 553.5328,96.5929495 553.5328,107.258654 C553.5328,111.615475 553.233102,115.446143 552.631455,118.750657 L465.201,118.750657 C465.802648,126.712812 468.656531,132.796813 473.763776,137.00266 C479.021997,141.058661 484.956227,143.086661 491.565338,143.086661 C496.823559,143.086661 501.856443,141.810148 506.662865,139.255994 C511.470413,136.70184 514.774969,133.24748 516.577659,128.890659 L547.223385,137.453327 C542.566812,146.767482 535.280565,154.35333 525.365772,160.211998 C515.601953,166.070666 503.95883,169 490.438657,169 Z M464.299655,96.6679855 L515.676314,96.6679855 C514.925944,89.156948 512.146422,83.2231315 507.338874,78.8666486 C502.682301,74.3599811 496.899046,72.1066473 489.987984,72.1066473 C483.078049,72.1066473 477.219307,74.3599811 472.411759,78.8666486 C467.755186,83.3733162 465.051151,89.3071327 464.299655,96.6679855 Z M626.432448,169 C613.213098,169 601.796439,166.146153 592.181342,160.437332 C582.71722,154.72851 575.4321,147.218149 570.323728,137.903994 C565.366331,128.589839 562.887633,118.449837 562.887633,107.483988 C562.887633,96.6679855 565.366331,86.6031322 570.323728,77.289315 C575.4321,67.9756105 582.71722,60.4644603 592.181342,54.7559772 C601.645463,49.0476067 613.06325,46.1933088 626.432448,46.1933088 C639.952621,46.1933088 651.370408,49.1226427 660.683554,54.9813105 C670.147675,60.6897937 677.208586,68.2009438 681.865159,77.5146484 L646.712708,88.1053172 C642.056135,80.5942797 635.220561,76.8386482 626.207112,76.8386482 C618.846504,76.8386482 612.612577,79.6177975 607.504205,85.1759832 C602.39696,90.7342817 599.842773,98.1702832 599.842773,107.483988 C599.842773,116.798143 602.39696,124.308504 607.504205,130.017326 C612.612577,135.726147 618.846504,138.579994 626.207112,138.579994 C630.713836,138.579994 634.845376,137.528814 638.600604,135.425327 C642.356959,133.171993 645.135354,130.318146 646.938044,126.862658 L682.090495,137.67866 C677.734746,146.841842 670.749323,154.35333 661.134226,160.211998 C651.670105,166.070666 640.103597,169 626.432448,169 Z M775,160.437332 C770.042603,162.540819 764.33371,164.493332 757.874447,166.295999 C751.565033,168.098666 745.180131,169 738.720868,169 C732.712278,169 727.228721,168.02318 722.271324,166.070666 C717.313927,163.967179 713.333362,160.587178 710.328504,155.930664 C707.323645,151.27415 705.821779,145.114662 705.821779,137.453327 L705.821779,75.7119813 L690.724252,75.7119813 L690.724252,48.4466426 L705.821779,48.4466426 L705.821779,10.8159684 L741.875575,10.8159684 L741.875575,48.4466426 L765.986551,48.4466426 L765.986551,75.7119813 L741.875575,75.7119813 L741.875575,125.059991 C741.875575,128.966145 742.852408,131.819993 744.804946,133.62266 C746.757484,135.27548 749.236183,136.101327 752.241041,136.101327 C754.945076,136.101327 757.724598,135.65066 760.578482,134.749326 C763.432365,133.847993 765.911063,132.871173 768.014577,131.819993 L775,160.437332 Z" id="Shape"></path>
        </g>
    </g>
</svg>